"author","id","name","pageCounter","price"
"Tolkien","1","RANDOM_PAPER_BOOK1","760","63.89659716968850489138276316225528717041015625"
"Tolkien","2","RANDOM_PAPER_BOOK2","622","26.7400019233056127632153220474720001220703125"
"Tolkien","3","RANDOM_PAPER_BOOK9","414","21.541891284053161115252805757336318492889404296875"
"Tolkien","4","RANDOM_PAPER_BOOK0","551","20.04302541404440063388392445631325244903564453125"
"Tolkien","5","RANDOM_PAPER_BOOK4","640","64.8715506157460595204611308872699737548828125"
"Tolkien","6","RANDOM_PAPER_BOOK4","740","89.576137650703230974613688886165618896484375"
"Tolkien","7","RANDOM_PAPER_BOOK3","366","98.409062342377211507482570596039295196533203125"
"Tolkien","8","RANDOM_PAPER_BOOK2","555","13.4252537233392814641774748452007770538330078125"
"Tolkien","9","RANDOM_PAPER_BOOK1","705","39.9469110603142638638018979690968990325927734375"
"Tolkien","10","RANDOM_PAPER_BOOK2","821","64.336806285153585349689819850027561187744140625"
"Tolkien","11","RANDOM_PAPER_BOOK8","318","37.2007991840558958074325346387922763824462890625"
"Tolkien","12","RANDOM_PAPER_BOOK0","722","47.3254584284420474205035134218633174896240234375"
"Tolkien","13","RANDOM_PAPER_BOOK8","1111","96.95923078940040795714594423770904541015625"
"Tolkien","14","RANDOM_PAPER_BOOK3","1001","93.39367187957390115116140805184841156005859375"
"Tolkien","15","RANDOM_PAPER_BOOK4","547","41.442697974738877064737607724964618682861328125"
"Tolkien","16","RANDOM_PAPER_BOOK5","1041","85.760570250638551215160987339913845062255859375"
"Tolkien","17","RANDOM_PAPER_BOOK3","1155","79.6385414391524903976460336707532405853271484375"
"Tolkien","18","RANDOM_PAPER_BOOK8","676","60.45592193936539615606307052075862884521484375"
"Tolkien","19","RANDOM_PAPER_BOOK5","214","64.6854911112503572212517610751092433929443359375"
"Tolkien","20","RANDOM_PAPER_BOOK8","1005","14.6230493189106187656989277456887066364288330078125"
"Tolkien","21","RANDOM_PAPER_BOOK8","553","62.54378378201875676722920616157352924346923828125"
"Tolkien","22","RANDOM_PAPER_BOOK6","1084","57.66579133210586149971277336589992046356201171875"
"Tolkien","23","RANDOM_PAPER_BOOK0","233","4.10891960014250212651631954940967261791229248046875"
"Tolkien","24","RANDOM_PAPER_BOOK2","824","68.826824169745208337189978919923305511474609375"
"Tolkien","25","RANDOM_PAPER_BOOK7","369","65.275842671747426493311650119721889495849609375"
"Tolkien","26","RANDOM_PAPER_BOOK9","1094","42.8488001811486611813961644656956195831298828125"
"Tolkien","27","RANDOM_PAPER_BOOK3","1013","91.7842878307114773406283347867429256439208984375"
"Tolkien","28","RANDOM_PAPER_BOOK4","623","71.221358018659230992852826602756977081298828125"
"Tolkien","29","RANDOM_PAPER_BOOK5","420","70.025453910259869871879345737397670745849609375"
"Tolkien","30","RANDOM_PAPER_BOOK1","486","35.2780890261245900774156325496733188629150390625"
"Tolkien","31","RANDOM_PAPER_BOOK1","591","79.25340374452895275680930353701114654541015625"
"Tolkien","32","RANDOM_PAPER_BOOK5","1176","38.04005671161825574699832941405475139617919921875"
"Tolkien","33","RANDOM_PAPER_BOOK7","889","71.4645078312208426041252096183598041534423828125"
"Tolkien","34","RANDOM_PAPER_BOOK4","527","44.95643496950017237168140127323567867279052734375"
"Tolkien","35","RANDOM_PAPER_BOOK1","1023","52.46971316404961527268824283964931964874267578125"
"Tolkien","36","RANDOM_PAPER_BOOK9","728","74.66831276848944298762944526970386505126953125"
"Tolkien","37","RANDOM_PAPER_BOOK9","1108","21.271557858006108432391556561924517154693603515625"
"Tolkien","38","RANDOM_PAPER_BOOK3","900","69.612514485541026942883036099374294281005859375"
"Tolkien","39","RANDOM_PAPER_BOOK9","322","63.751057333449153929905151017010211944580078125"
"Tolkien","40","RANDOM_PAPER_BOOK1","1138","20.98643889431475173523722332902252674102783203125"
"Tolkien","41","RANDOM_PAPER_BOOK6","466","43.13502811845014406344489543698728084564208984375"
"Tolkien","42","RANDOM_PAPER_BOOK5","755","44.184196275417576771360472775995731353759765625"
"Tolkien","43","RANDOM_PAPER_BOOK4","810","41.5492093041696222144310013391077518463134765625"
"Tolkien","44","RANDOM_PAPER_BOOK7","707","53.8032877348752407442589174024760723114013671875"
"Tolkien","45","RANDOM_PAPER_BOOK7","602","8.008740050342765925961430184543132781982421875"
"Tolkien","46","RANDOM_PAPER_BOOK0","339","80.7336527858925450118476874195039272308349609375"
"Tolkien","47","RANDOM_PAPER_BOOK7","490","43.139411509478321704591508023440837860107421875"
"Tolkien","48","RANDOM_PAPER_BOOK1","1145","78.7225074792149825952947139739990234375"
"Tolkien","49","RANDOM_PAPER_BOOK5","1012","32.6740141231319540793265332467854022979736328125"
"Tolkien","50","RANDOM_PAPER_BOOK9","547","12.145942484722382914696936495602130889892578125"
"Tolkien","51","RANDOM_PAPER_BOOK6","287","57.2744341138207602170950849540531635284423828125"
"Tolkien","52","RANDOM_PAPER_BOOK2","745","15.1257110406949895065054079168476164340972900390625"
"Tolkien","53","RANDOM_PAPER_BOOK0","508","2.6003459371958026480342596187256276607513427734375"
"Tolkien","54","RANDOM_PAPER_BOOK2","1059","43.031283617799317653407342731952667236328125"
"Tolkien","55","RANDOM_PAPER_BOOK5","271","36.15208607463855372543548583053052425384521484375"
"Tolkien","56","RANDOM_PAPER_BOOK1","613","98.2221696339476153525538393296301364898681640625"
"Tolkien","57","RANDOM_PAPER_BOOK3","583","28.496847896049704473853125819005072116851806640625"
"Tolkien","58","RANDOM_PAPER_BOOK1","942","70.3134216980796651341734104789793491363525390625"
"Tolkien","59","RANDOM_PAPER_BOOK9","290","15.424600682760480907518285675905644893646240234375"
"Tolkien","60","RANDOM_PAPER_BOOK9","438","5.3725772439490615539625650853849947452545166015625"
"Tolkien","61","RANDOM_PAPER_BOOK2","550","84.6295473549258616685619927011430263519287109375"
"Tolkien","62","RANDOM_PAPER_BOOK9","238","67.6171211266091205516204354353249073028564453125"
"Tolkien","63","RANDOM_PAPER_BOOK0","407","35.16183715454342717521285521797835826873779296875"
"Tolkien","64","RANDOM_PAPER_BOOK2","343","27.54271202479918656536028720438480377197265625"
"Tolkien","65","RANDOM_PAPER_BOOK1","548","20.22529320893691107130507589317858219146728515625"
"Tolkien","66","RANDOM_PAPER_BOOK8","582","65.801876278647938534049899317324161529541015625"
"Tolkien","67","RANDOM_PAPER_BOOK3","818","27.910152406997124074905514135025441646575927734375"
"Tolkien","68","RANDOM_PAPER_BOOK8","472","49.67941230018389120459687546826899051666259765625"
"Tolkien","69","RANDOM_PAPER_BOOK9","1098","70.7397694924340925126671209000051021575927734375"
"Tolkien","70","RANDOM_PAPER_BOOK4","855","48.91712547116024012439083890058100223541259765625"
"Tolkien","71","RANDOM_PAPER_BOOK7","602","14.616450289250860095080497558228671550750732421875"
"Tolkien","72","RANDOM_PAPER_BOOK8","1133","79.442992764619958734328974969685077667236328125"
"Tolkien","73","RANDOM_PAPER_BOOK0","779","17.434900283578969037989736534655094146728515625"
"Tolkien","74","RANDOM_PAPER_BOOK2","876","52.069571594094810507158399559557437896728515625"
"Tolkien","75","RANDOM_PAPER_BOOK0","318","90.3575403597605628647215780802071094512939453125"
"Tolkien","76","RANDOM_PAPER_BOOK5","669","34.527010358891885744014871306717395782470703125"
"Tolkien","77","RANDOM_PAPER_BOOK2","664","21.24962167664283896328925038687884807586669921875"
"Tolkien","78","RANDOM_PAPER_BOOK8","526","93.158563443625695299488143064081668853759765625"
"Tolkien","79","RANDOM_PAPER_BOOK4","1095","71.3031865698104212469843332655727863311767578125"
"Tolkien","80","RANDOM_PAPER_BOOK8","861","29.577792779178547988294667447917163372039794921875"
"Tolkien","81","RANDOM_PAPER_BOOK8","207","72.7460172748444477974771871231496334075927734375"
"Tolkien","82","RANDOM_PAPER_BOOK7","861","84.431660802944321631002821959555149078369140625"
"Tolkien","83","RANDOM_PAPER_BOOK1","798","32.29903123927005026416736654937267303466796875"
"Tolkien","84","RANDOM_PAPER_BOOK6","376","31.21295495750724313666069065220654010772705078125"
"Tolkien","85","RANDOM_PAPER_BOOK0","822","7.3078243155585536072749164304696023464202880859375"
"Tolkien","86","RANDOM_PAPER_BOOK3","811","54.7120798474608136530150659382343292236328125"
"Tolkien","87","RANDOM_PAPER_BOOK2","710","51.82333154403929853515364811755716800689697265625"
"Tolkien","88","RANDOM_PAPER_BOOK3","434","43.74434622466021238551547867245972156524658203125"
"Tolkien","89","RANDOM_PAPER_BOOK2","1082","34.81905128055583276136530912481248378753662109375"
"Tolkien","90","RANDOM_PAPER_BOOK0","502","49.699158446668178612526389770209789276123046875"
"Tolkien","91","RANDOM_PAPER_BOOK2","1073","1.0284551113723505721964102122001349925994873046875"
"Tolkien","92","RANDOM_PAPER_BOOK4","1194","22.47919142941265846502574277110397815704345703125"
"Tolkien","93","RANDOM_PAPER_BOOK2","610","21.1167627394618904190792818553745746612548828125"
"Tolkien","94","RANDOM_PAPER_BOOK0","522","33.31891325750725485477232723496854305267333984375"
"Tolkien","95","RANDOM_PAPER_BOOK7","609","9.5410341176025763587631445261649787425994873046875"
"Tolkien","96","RANDOM_PAPER_BOOK5","1147","1.197861670738387118717582779936492443084716796875"
"Tolkien","97","RANDOM_PAPER_BOOK0","1063","69.0928340048548506047154660336673259735107421875"
"Tolkien","98","RANDOM_PAPER_BOOK6","768","13.77767717532554314630033331923186779022216796875"
"Tolkien","99","RANDOM_PAPER_BOOK6","633","70.2282549881278015391217195428907871246337890625"
"Tolkien","100","RANDOM_PAPER_BOOK4","826","0.348791373390910930396557887434028089046478271484375"
